{
  "id": 1,
  "title": "Круги руками",
  "description": "Встаньте прямо, поднимите прямые руки в стороны на уровень плеч, ладони смотрят вверх.Медленно описывайте руками небольшие круги диаметром около 15 сантиметров. В основном движение исходит от плеч, напряжение чувствуется в их задней части. Выполните пять кругов вперёд и пять назад.",
  "category": "Плечи",
  "video_link": "https://www.youtube.com/watch?v=-mdfEuj-NFI",
  "equipment": null,
  "image": "https://lh3.googleusercontent.com/proxy/VCobZvikTBDt7iefJtCWf1X2csHy11l1DbVQ3pZoFTPuh2bIQgxAscmdoQBLzgqggjDamkMTK3Y3PdqTv9dJv88fXzhgTu5SmNZ1R6wGJTg0"
}