[
  {
    "id": 1,
    "email": "sigmundfreud1856@gmail.com",
    "name": "Зигмунд",
    "surname": "Фрейд",
    "gender": "мужчина",
    "birt_date": "06-05-1856",
    "phone": "77071771717",
    "city": "Лондон",
    "role": "консультант"
  },
  {
    "id": 2,
    "email": "alex_fleming81@gmail.com",
    "name": "Александр",
    "surname": "Флеминг",
    "gender": "мужчина",
    "birt_date": "06-08-1881",
    "phone": "77088880880",
    "city": "Лондон",
    "role": "консультант"
  },
  {
    "id": 3,
    "email": "markzuckerberg@gmail.com",
    "name": "Марк",
    "surname": "Цукерберг",
    "gender": "мужчина",
    "birt_date": "14-06-1984",
    "phone": "77005557799",
    "city": "Сан-Франциско",
    "role": "пациент"
  },
  {
    "id": 4,
    "email": "jeff-bezos@gmail.com",
    "name": "Джеффри",
    "surname": "Безос",
    "gender": "мужчина",
    "birt_date": "12-01-1964",
    "phone": "77057057557",
    "city": "Медина",
    "role": "пациент"
  },
  {
    "id": 5,
    "email": "elonmusk@gmail.com",
    "name": "Илон",
    "surname": "Маск",
    "gender": "мужчина",
    "birt_date": "28-06-1971",
    "phone": "77022233223",
    "city": "Пало-Альто",
    "role": "пациент"
  }
]